agents of s.h.i.e.l.d. - S03E10
archer - S06E13
arrow - S04E09
doctor who - S09E12
elementary - S03E08
family guy - S14E11
gotham - S01E14
heroes reborn - S01E12
izombie - S02E10
limitless - S01E09
modern family - S07E11
muppets - S01E08
penny dreadful - S01E01
scorpion - S01E08
the big bang theory - S09E13
the flash - S02E08
the walking dead - S06E08
